{
  "dependencies": {
    "Microsoft.NETCore.App": {
      "version": "1.1.0",
      "type": "platform"
    },
    "Microsoft.AspNetCore.Diagnostics": "1.1.0",
    "Microsoft.AspNetCore.Mvc": "1.1.0",
    "Microsoft.AspNetCore.Razor.Tools": {
      "version": "1.0.0-preview2-final",
      "type": "build"
    },
    "Microsoft.AspNetCore.Server.IISIntegration": "1.1.0",
    "Microsoft.AspNetCore.Server.Kestrel": "1.1.0",
    "Microsoft.AspNetCore.SpaServices": "1.1.0-*",
    "Microsoft.AspNetCore.StaticFiles": "1.1.0",
    "Microsoft.Extensions.Configuration.EnvironmentVariables": "1.1.0",
    "Microsoft.Extensions.Configuration.Json": "1.1.0",
    "Microsoft.Extensions.Configuration.CommandLine": "1.1.0",
    "Microsoft.Extensions.Logging": "1.1.0",
    "Microsoft.Extensions.Logging.Console": "1.1.0",
    "Microsoft.Extensions.Logging.Debug": "1.1.0",
    "Microsoft.Extensions.Options.ConfigurationExtensions": "1.1.0"
  },

  "tools": {
    "Microsoft.AspNetCore.Razor.Tools": "1.0.0-preview2-final",
    "Microsoft.AspNetCore.Server.IISIntegration.Tools": "1.0.0-preview2-final",
    "Microsoft.DotNet.Watcher.Tools": "1.0.0-preview2-final"
  },

  "frameworks": {
    "netcoreapp1.1": {
      "imports": [
        "dotnet5.6",
        "portable-net45+win8"
      ]
    }
  },

  "buildOptions": {
    "emitEntryPoint": true,
    "preserveCompilationContext": true,
    "compile": {
      "exclude": ["node_modules"]
    },
    "copyToOutput":{
      "include": [
      "appsettings.json",
      "ClientApp/dist",
      "Views",
      "web.config",
      "wwwroot"
    ],
    "exclude": [
      "wwwroot/dist/*.map"
    ]
    }
  },

  "runtimeOptions": {
    "configProperties": {
      "System.GC.Server": true
    }
  },

  "publishOptions": {
    "include": [
      "appsettings.json",
      "ClientApp/dist",
      "Views",
      "web.config",
      "wwwroot"
    ],
    "exclude": [
      "wwwroot/dist/*.map"
    ]
  },

  "scripts": {
    "prepublish": [
      "npm install",
      "node node_modules/webpack/bin/webpack.js --config webpack.config.vendor.js --env.prod",
      "node node_modules/webpack/bin/webpack.js --env.prod"
    ],
    "postpublish": [ "dotnet publish-iis --publish-folder %publish:OutputPath% --framework %publish:FullTargetFramework%" ]
  }
}