<svg id="Layer_1" data-name="Layer 1" xmlns="http://www.w3.org/2000/svg" viewBox="0 0 16.89 19.93">
  <defs>
    <style>
      .cls-1 {
        fill: #3fa9f5;
      }
    </style>
  </defs>
  <title>control-center-icon</title>
  <path class="cls-1" d="M17.39,5.43s0,0,0,0a.46.46,0,0,0,0-.09.47.47,0,0,0-.1-.19s0,0,0,0l0,0,0,0L9.21.11a.5.5,0,0,0-.52,0L.74,5l0,0,0,0s0,0,0,0a.47.47,0,0,0-.1.19.45.45,0,0,0,0,.08s0,0,0,0a.5.5,0,0,0,.06.25h0l7.95,14,0,0a.49.49,0,0,0,.16.16l0,0,.1,0,.13,0,.13,0,.1,0,0,0a.49.49,0,0,0,.16-.16l0,0,7.95-14h0A.5.5,0,0,0,17.39,5.43ZM8.95,1.12l7,4.3-7,4.3L4.52,7,2,5.43ZM5.17,8.58l3.27,2v7L2.39,6.87Zm4.27,9v-7l.67-.41L15.5,6.87Z" transform="translate(-0.5 -0.04)"/>
</svg>
